
[
 {

  "nombreAtaque":"Impactrueno",
  "potenciaAtaque":40,
  "tipoAtaque":"Especial"
 }
,
 {

  "nombreAtaque":"Chispa",
  "potenciaAtaque":75,
  "tipoAtaque":"Especial"
 }
,
 {

  "nombreAtaque":"Rayo Carga",
  "potenciaAtaque":90,
  "tipoAtaque":"Especial"
 }
,
 {

  "nombreAtaque":"VoltioCambio",
  "potenciaAtaque":110,
  "tipoAtaque":"Fisico"
 }
 ,
 {
   "nombreAtaque":"Puño trueno",
   "potenciaAtaque":134,
   "tipoAtaque":"Físico"
 }

]
